<?xml version="1.0" encoding="UTF-8"?>
<!-- Generator: Gravit.io -->
<svg xmlns="http://www.w3.org/2000/svg" xmlns:xlink="http://www.w3.org/1999/xlink" width="250" height="250">
   <defs>
      
   </defs>
   <g>
      <g>
         <line x1="0" y1="0" x2="0" y2="100" style="fill:none;stroke:#000000;stroke-width:1"/>
         <line x1="0" y1="100" x2="100" y2="100" style="fill:none;stroke:#000000;stroke-width:1"/>
         <line x1="100" y1="100" x2="100" y2="0" style="fill:none;stroke:#000000;stroke-width:1"/>
         <line x1="100" y1="0" x2="0" y2="0" style="fill:none;stroke:#000000;stroke-width:1"/>
      </g>
      
   </g>
</svg>